^C:\USERS\1\SOURCE\REPOS\FYAZIG\FYAZIG\DEBUG\FYAZIG.OBJ|C:\USERS\1\SOURCE\REPOS\FYAZIG\FYAZIG\DEBUG\PCH.OBJ
C:\USERS\1\SOURCE\REPOS\FYAZIG\DEPENDENCES\GNUWIN32\LIB\REGEX.LIB
H:\WINDOWS KITS\10\LIB\10.0.17763.0\UM\X86\KERNEL32.LIB
H:\WINDOWS KITS\10\LIB\10.0.17763.0\UM\X86\USER32.LIB
H:\WINDOWS KITS\10\LIB\10.0.17763.0\UM\X86\GDI32.LIB
H:\WINDOWS KITS\10\LIB\10.0.17763.0\UM\X86\WINSPOOL.LIB
H:\WINDOWS KITS\10\LIB\10.0.17763.0\UM\X86\COMDLG32.LIB
H:\WINDOWS KITS\10\LIB\10.0.17763.0\UM\X86\ADVAPI32.LIB
H:\WINDOWS KITS\10\LIB\10.0.17763.0\UM\X86\SHELL32.LIB
H:\WINDOWS KITS\10\LIB\10.0.17763.0\UM\X86\OLE32.LIB
H:\WINDOWS KITS\10\LIB\10.0.17763.0\UM\X86\OLEAUT32.LIB
H:\WINDOWS KITS\10\LIB\10.0.17763.0\UM\X86\UUID.LIB
H:\WINDOWS KITS\10\LIB\10.0.17763.0\UM\X86\ODBC32.LIB
H:\WINDOWS KITS\10\LIB\10.0.17763.0\UM\X86\ODBCCP32.LIB
C:\USERS\1\SOURCE\REPOS\FYAZIG\FYAZIG\DEBUG\FYAZIG.OBJ
C:\USERS\1\SOURCE\REPOS\FYAZIG\FYAZIG\DEBUG\PCH.OBJ
C:\WINDOWS\SYSTEM32\TZRES.DLL
C:\WINDOWS\GLOBALIZATION\SORTING\SORTDEFAULT.NLS
H:\VISUAL STUDIO 2017\VC\TOOLS\MSVC\14.16.27023\LIB\X86\MSVCPRTD.LIB
H:\VISUAL STUDIO 2017\VC\TOOLS\MSVC\14.16.27023\LIB\X86\MSVCRTD.LIB
H:\VISUAL STUDIO 2017\VC\TOOLS\MSVC\14.16.27023\LIB\X86\OLDNAMES.LIB
H:\VISUAL STUDIO 2017\VC\TOOLS\MSVC\14.16.27023\LIB\X86\VCRUNTIMED.LIB
H:\WINDOWS KITS\10\LIB\10.0.17763.0\UCRT\X86\UCRTD.LIB
